{
    "lpi": {
        "imp": {
            "model_type": 1.0
        },
        "order": [
            "model_type"
        ]
    }
}x_depth']": 0.00010499356142107291,
            "['nn_act_f', 'rf_max_features']": 0.03361416529552015,
            "['nn_act_f', 'rf_min_samples_split']": 0.0005025357746883343,
            "['nn_hidden_dim', 'rf_max_depth']": 0.002111072388962027,
            "['nn_hidden_dim', 'rf_min_samples_split']": 0.00027764007501047944,
            "['rf_max_features', 'nn_hidden_dim']": 0.0028940457777533683,
            "['rf_max_features', 'rf_max_depth']": 0.0016270358676878946,
            "['rf_max_features', 'rf_min_samples_split']": 0.002949654564514641,
            "['rf_min_samples_split', 'rf_max_depth']": 0.006475912759858291,
            "cnn_act_f": 2.6241541279008024e-15,
            "cnn_batch_norm": 2.6241541279008024e-15,
            "cnn_dropout": 2.6241541279008024e-15,
            "cnn_lR": 2.6241541279008024e-15,
            "cnn_num_conv_layers": 2.6241541279008024e-15,
            "cnn_num_fc_layers": 2.6241541279008024e-15,
            "model_type": 0.002399867887625486,
            "nn_act_f": 0.38120714275344436,
            "nn_hidden_dim": 0.13091531341858437,
            "nn_lR": 2.6241541279008024e-15,
            "nn_num_layers": 0.001054547581399728,
            "rf_max_depth": 0.03313392069803695,
            "rf_max_features": 0.289192878965348,
            "rf_min_samples_split": 0.06574762537604499,
            "rf_num_trees": 0.016306045795389558
        },
        "order": [
            "nn_act_f",
            "rf_max_features",
            "nn_hidden_dim",
            "rf_min_samples_split",
            "rf_max_depth",
            "rf_num_trees",
            "model_type",
            "nn_num_layers",
            "cnn_act_f",
            "cnn_batch_norm",
            "cnn_dropout",
            "cnn_lR",
            "cnn_num_conv_layers",
            "cnn_num_fc_layers",
            "nn_lR",
            "['nn_act_f', 'rf_max_features']",
            "['nn_act_f', 'nn_hidden_dim']",
            "['nn_act_f', 'rf_min_samples_split']",
            "['nn_act_f', 'rf_max_depth']",
            "['rf_max_features', 'nn_hidden_dim']",
            "['rf_max_features', 'rf_min_samples_split']",
            "['rf_max_features', 'rf_max_depth']",
            "['nn_hidden_dim', 'rf_min_samples_split']",
            "['nn_hidden_dim', 'rf_max_depth']",
            "['rf_min_samples_split', 'rf_max_depth']"
        ]
    }
}